…
flMedicaid2016to2021
```

    ## # A tibble: 72 x 10
    ##    plan_name  id    tanf_adult_21_o~ medicaid_21_over duals_21_over idDate year 
    ##    <chr>      <chr>            <dbl>            <dbl>         <dbl> <chr>  <chr>
    ##  1 TOTAL OF ~ ./da~           618223           242625        756196 201601 2016 
    ##  2 TOTAL OF ~ ./da~           625545           249567        758347 201602 2016 
    ##  3 TOTAL OF ~ ./da~           620401           249509        758279 201603 2016 
    ##  4 TOTAL OF ~ ./da~           616907           246055        759099 201604 2016 
    ##  5 TOTAL OF ~ ./da~           619192           251946        764651 201605 2016 
    ##  6 TOTAL OF ~ ./da~           612287           250391        765373 201606 2016 
    ##  7 TOTAL OF ~ ./da~           612672           247332        767279 201607 2016 
    ##  8 TOTAL OF ~ ./da~           618827           252607        770966 201608 2016 
    ##  9 TOTAL OF ~ ./da~           614316           249152        771034 201609 2016 
    ## 10 TOTAL OF ~ ./da~           607557           247551        771546 201610 2016 
    ## # ... with 62 more rows, and 3 more variables: month <chr>, yearNum <yearmon>,
    ## #   yearQtr <yearqtr>
…
``` r
aggByMonth <- flMedicaid2016to2021 |>
  group_by(yearNum) |>
  mutate(
    total = sum(across(.cols = tanf_adult_21_over:duals_21_over))
  ) |>
  distinct(yearNum, .keep_all = TRUE)

aggByMonthDenom <- aggByMonth |>
  select(yearNum, tanf_adult_21_over:duals_21_over, total)

aggByMonthDenom
```

    ## # A tibble: 72 x 5
    ## # Groups:   yearNum [72]
    ##    yearNum   tanf_adult_21_over medicaid_21_over duals_21_over   total
    ##    <yearmon>              <dbl>            <dbl>         <dbl>   <dbl>
    ##  1 Jan 2016              618223           242625        756196 1617044
    ##  2 Feb 2016              625545           249567        758347 1633459
    ##  3 Mar 2016              620401           249509        758279 1628189
    ##  4 Apr 2016              616907           246055        759099 1622061
    ##  5 May 2016              619192           251946        764651 1635789
    ##  6 Jun 2016              612287           250391        765373 1628051
    ##  7 Jul 2016              612672           247332        767279 1627283
    ##  8 Aug 2016              618827           252607        770966 1642400
    ##  9 Sep 2016              614316           249152        771034 1634502
    ## 10 Oct 2016              607557           247551        771546 1626654
    ## # ... with 62 more rows
``` r
aggByYearQtr <- flMedicaid2016to2021 |>
  group_by(yearQtr) |>
  mutate(
    total = sum(across(.cols = tanf_adult_21_over:duals_21_over)) / 3
  ) |>
  distinct(yearQtr, .keep_all = TRUE)

aggByYearQtrDenom <- aggByYearQtr |>
  select(yearQtr, total)

aggByYearQtrDenom
```

    ## # A tibble: 24 x 2
    ## # Groups:   yearQtr [24]
    ##    yearQtr      total
    ##    <yearqtr>    <dbl>
    ##  1 2016 Q1   1626231.
    ##  2 2016 Q2   1628634.
    ##  3 2016 Q3   1634728.
    ##  4 2016 Q4   1631855.
    ##  5 2017 Q1   1637312 
    ##  6 2017 Q2   1628608 
    ##  7 2017 Q3   1613870 
    ##  8 2017 Q4   1611012 
    ##  9 2018 Q1   1598327.
    ## 10 2018 Q2   1582947.
    ## # ... with 14 more rows
…
