…
read_csv(file = './data/clean/20220218_fl-quarterly-enrollment-denominator.csv')
```

    ## Rows: 24 Columns: 2
    ## ── Column specification ────────────────────────────────────────────────────────
    ## Delimiter: ","
    ## chr (1): yearQtr
    ## dbl (1): total
    ## 
    ## ℹ Use `spec()` to retrieve the full column specification for this data.
    ## ℹ Specify the column types or set `show_col_types = FALSE` to quiet this message.

    ## # A tibble: 24 × 2
    ##    yearQtr    total
    ##    <chr>      <dbl>
    ##  1 2016 Q1 1626231.
    ##  2 2016 Q2 1628634.
    ##  3 2016 Q3 1634728.
    ##  4 2016 Q4 1631855.
    ##  5 2017 Q1 1637312 
    ##  6 2017 Q2 1628608 
    ##  7 2017 Q3 1613870 
    ##  8 2017 Q4 1611012 
    ##  9 2018 Q1 1598327.
    ## 10 2018 Q2 1582947.
    ## # … with 14 more rows
    ## # ℹ Use `print(n = ...)` to see more rows
…
